Comsys/comsys PP/lab7/wave.vcd
$date
     Mar 03, 2015       19:38:11
$end

$version
 SystemC 2.3.1-Accellera --- Jan 13 2015 10:16:55
$end

$timescale
     1 ps
$end

$scope module SystemC $end
$var wire    1  aaaaa  clk       $end
$var wire    1  aaaab  enable       $end
$var wire    1  aaaac  rw       $end
$var wire    1  aaaad  clr       $end
$var wire    1  aaaae  ci       $end
$var wire    1  aaaaf  co       $end
$var wire    1  aaaag  zflag       $end
$var wire    1  aaaah  oflag       $end
$var wire   16  aaaai  din0 [15:0]  $end
$var wire   16  aaaaj  din1 [15:0]  $end
$var wire   16  aaaak  dout2 [15:0]  $end
$var wire    4  aaaal  op [3:0]  $end
$var wire   16  aaaam  dout0 [15:0]  $end
$var wire   16  aaaan  dout1 [15:0]  $end
$var wire   16  aaaao  din2 [15:0]  $end
$upscope $end
$enddefinitions  $end

$comment
All initial values are dumped below at time 0 sec = 0 timescale units.
$end

$dumpvars
1aaaaa
0aaaab
0aaaac
0aaaad
0aaaae
0aaaaf
1aaaag
0aaaah
b0 aaaai
b0 aaaaj
b0 aaaak
b0 aaaal
b0 aaaam
b0 aaaan
b0 aaaao
$end

#5000
0aaaaa

#10000
1aaaaa

#15000
0aaaaa

#20000
1aaaaa
1aaaab
1aaaad
b11 aaaai
b111 aaaaj

#25000
0aaaaa

#30000
1aaaaa
0aaaag
b11 aaaam
b111 aaaan
b1010 aaaao

#35000
0aaaaa

#40000
1aaaaa
b1010 aaaak

#45000
0aaaaa

#50000
1aaaaa

#55000
0aaaaa

#60000
1aaaaa
b111 aaaai
b1100 aaaaj
b11 aaaal

#65000
0aaaaa

#70000
1aaaaa
b111 aaaam
b1100 aaaan
b100 aaaao

#75000
0aaaaa

#80000
1aaaaa
b100 aaaak

#85000
0aaaaa

#90000
1aaaaa

#95000
0aaaaa

#100000
1aaaaa
b1000 aaaai
b1001 aaaaj
b0 aaaal

#105000
0aaaaa

#110000
1aaaaa
b1000 aaaam
b1001 aaaan
b10001 aaaao

#115000
0aaaaa

#120000
1aaaaa
b10001 aaaak

